1 10 20
10 10 7
17 17 13
50 100 119
60 70 108
100 50 119
100 200 125
201 210 89
900 1000 174
82026 115900 354
3795 383095 443
82360 183603 383
40285 502317 449
27818 680181 509
78657 143746 375
52281 76707 340
13537 739355 509
43278 503410 449
1115 405871 443
47242 158519 383
81178 754037 509
73215 209110 383
11681 812520 509
17141 840690 525
66436 733471 509
14471 193148 383
76652 518989 470
17855 206193 383
33156 483368 449
52192 427512 449
3683 79306 351
41663 269045 443
7470 613622 470
29301 675137 509
95389 727746 509
2916 876822 525
81906 129779 354
93916 454134 449
78471 850811 525
68370 196709 383
45476 958362 525
33691 770962 509
1488 76937 340
48525 377866 443
73188 690824 509
22368 465855 449
42946 64790 340
67480 743395 509
48300 828189 509
51737 837900 525
12872 25275 282
21809 393567 443
53578 702793 509
53040 86213 351
18799 939722 525
53108 537868 470
15085 442989 449
5967 411961 449
68379 393560 443
15541 215937 383
54376 475080 449
14394 984157 525
9256 738352 509
30932 480925 449
648 263457 443
15189 937628 525
93971 640584 509
24993 888889 525
98278 265475 443
95288 214327 383
55230 673061 509
95284 503405 449
69570 334767 443
73994 283323 443
82155 530599 470
97402 769494 509
16120 328979 443
1984 39245 324
59840 226555 386
3250 173668 383
23580 933591 525
64373 113251 354
74081 530118 470
66386 969680 525
15472 398616 443
78007 430821 449
89850 954663 525
9675 961892 525
76594 802116 509
2426 213628 383
79583 996760 525
71986 731522 509
10212 663364 509
45786 66140 340
31602 474459 449
48316 68509 340
76331 560044 470
82680 711411 509
74665 201269 383
29744 500512 449
71873 184802 383
84610 555637 470
6012 418601 449
42754 680865 509
6645 782756 509
70451 668413 509
50673 282979 443
28712 620412 470
19553 418499 449
