....................
----------------------------------------------------------------------
Ran 20 tests in 4.706s

OK
Name             Stmts   Miss Branch BrPart  Cover   Missing
------------------------------------------------------------
Collatz.py          33      0     18      0   100%
TestCollatz.py      86      0      2      0   100%
------------------------------------------------------------
TOTAL              119      0     20      0   100%
