1 1 1
90 90 18
9009 19 262
7769 91484 351
3491 12787 268
9288 7073 260
7723 97266 351
4008 79972 351
956 37530 324
2874 66713 340
7425 55183 340
4691 31397 308
5384 25889 282
5575 94129 351
1059 64142 340
9905 24450 282
3844 77138 351
6780 86335 351
8361 95854 351
1345 14242 276
3629 93510 351
1877 85758 351
3018 85881 351
5899 54205 340
4065 82572 351
2064 70953 340
1520 68704 340
8731 72223 340
7123 87495 351
1155 80141 351
4282 55975 340
9555 89125 351
530 36947 324
8429 24604 282
9170 95183 351
1681 15373 276
5905 1729 238
1177 44395 324
3975 50193 324
813 62000 340
2037 16746 276
8907 38330 324
135 44135 324
1961 22633 279
6228 52579 340
2399 98784 351
5099 77936 351
6386 64253 340
3738 36323 324
2489 43154 324
5284 31636 308
7194 87782 351
2383 61561 340
5255 82512 351
504 75831 340
4768 52719 340
5992 62142 340
886 10707 262
6635 98877 351
1388 31551 308
2063 73165 340
4340 65107 340
9126 93965 351
3322 66245 340
6212 75670 340
1906 72785 340
8528 44766 324
7398 23742 282
9462 52758 340
6777 71127 340
4356 6905 262
4560 2794 238
3072 77615 351
9144 71053 340
5284 81867 351
5859 7286 262
8198 17188 276
344 47797 324
8758 31567 308
3553 5924 238
6358 43184 324
9653 77133 351
2532 84724 351
2755 79541 351
6640 35696 324
5873 9214 262
5649 18479 279
1077 72454 340
2990 3901 238
2442 9472 262
107 76492 340
6511 98909 351
5961 15995 276
8669 23777 282
6255 86803 351
5948 78061 351
8497 71412 340
7011 30220 308
4678 52447 324
3852 42414 324
1932 54743 340
1900 33588 308
4895 86430 351
1483 80875 351
906 12296 268
3978 1180 238
7404 33374 308
9450 74127 340
5614 37727 324
8667 55764 340
7789 38265 324
9044 29542 308
2626 39881 324
8548 88933 351
3705 9325 262
2363 68868 340
6569 99534 351
7381 87543 351
4996 73614 340
44 26639 308
3245 53096 340
5229 28016 308
6371 13783 276
