1 10 20
100 200 125
201 210 89
900 1000 174
1438 388 182
53751 8729 340
73080 94523 351
95845 89782 333
70578 73177 325
5022 67401 340
15306 67333 340
25302 57497 340
76121 17650 340
58848 66568 335
89217 82206 333
48553 77220 351
59630 44265 340
94392 80506 333
69112 79533 351
47038 5095 324
27841 72047 340
31969 59596 340
94049 11758 351
79618 85406 320
65862 44873 340
27860 19987 308
21818 30542 308
30268 71612 340
76543 334 340
65955 92886 351
16883 77802 351
93942 65659 351
95879 56426 351
8553 71408 340
65442 40190 340
2910 73903 340
38113 98464 351
89364 91201 315
49627 7323 324
30829 28854 272
97369 10443 351
39137 88479 351
10058 33246 308
5087 71809 340
99698 26621 351
22400 17776 274
17841 11511 279
12151 68965 340
84236 28568 351
27294 72009 340
59949 29236 340
3735 11001 268
69614 57299 335
41184 23162 324
51748 74546 340
62 1 113
78 62 116
26 30 112
20 83 116
3 59 113
14 50 112
50 34 110
75 12 116
29 22 112
23 46 112
30 40 107
29 73 116
32 66 113
75 1 116
5 1 8
51 37 110
60 52 113
3 29 112
82 73 116
86 39 116
63 89 116
8 16 20
61 25 113
59 71 108
51 99 119
89 25 116
45 77 116
41 54 113
81 18 116
4 55 113
94 99 119
90 32 116
28 37 107
10 58 113
45 12 112
27 7 112
26 99 119
43 96 116
13 5 20
18 29 112
9 22 21
12 93 116
36 12 112
87 68 116
85 43 116
100 83 119
93 82 111
45 9 112
56 42 113
75 30 116
